C:\Users\selenium\eclipse-workspace\LEDE_UK\src\test\java\ObjectRepository\EnerGenieHome.java
C:\Users\selenium\eclipse-workspace\LEDE_UK\src\test\java\ObjectRepository\LEDELogin.java
C:\Users\selenium\eclipse-workspace\LEDE_UK\src\test\java\ObjectRepository\EnerGenieLogin.java
C:\Users\selenium\eclipse-workspace\LEDE_UK\src\test\java\TestCase\VerifySocketStatus.java
C:\Users\selenium\eclipse-workspace\LEDE_UK\src\test\java\TestCase\SocketBStatusOFF.java
C:\Users\selenium\eclipse-workspace\LEDE_UK\src\test\java\TestCase\SocketBStatusON.java
C:\Users\selenium\eclipse-workspace\LEDE_UK\src\test\java\ObjectRepository\LEDEHome.java
